Haptic Texture Uniformity Ratings
…
#Confidence Intervals
ci_data <- ratings_trials_exp %>%
  group_by(texture) %>%
  summarise(
    mean_rating = mean(response, na.rm = TRUE),
    ci_lower = mean(response, na.rm = TRUE) - qt(0.975, df = n() - 1) * sd(response, na.rm = TRUE) / sqrt(n()),
    ci_upper = mean(response, na.rm = TRUE) + qt(0.975, df = n() - 1) * sd(response, na.rm = TRUE) / sqrt(n()),
    .groups = "drop"  # Drop grouping after summarize
  )

# View the confidence intervals
print(ci_data)

# A tibble: 112 × 4
   texture mean_rating ci_lower ci_upper
   <chr>         <dbl>    <dbl>    <dbl>
 1 D1             5.4      4.24     6.56
 2 D10            3.29     2.01     4.56
 3 D100           4.57     2.45     6.70
 4 D101           5        3.23     6.77
 5 D102*          5.71     4.55     6.87
 6 D103           3.71     1.74     5.69
 7 D104           5.17     3.77     6.56
 8 D105           3.71     2.23     5.20
 9 D106           5.67     4.58     6.75
10 D107           2.71     1.23     4.20
# ℹ 102 more rows

ci_data <- ci_data %>% 
  arrange(desc(mean_rating))

ci_data

# A tibble: 112 × 4
   texture mean_rating ci_lower ci_upper
   <chr>         <dbl>    <dbl>    <dbl>
 1 D28            8.57    -5.10    22.2 
 2 D53            6.29     4.90     7.67
 3 D77            6.21     5.38     7.05
 4 D14            6.07     4.33     7.81
 5 D34            6        3.43     8.57
 6 D52            6        4.84     7.16
 7 D55            6        5.08     6.92
 8 D102*          5.71     4.55     6.87
 9 D106           5.67     4.58     6.75
10 D20            5.67     3.21     8.12
# ℹ 102 more rows
#Error
error_data <- ratings_trials_exp %>%
  group_by(texture) %>%
  summarise(
    mean_rating = mean(response, na.rm = TRUE),
    se = sd(response, na.rm = TRUE) / sqrt(n()),  # Standard error of the mean
    error_lower = mean_rating - se,               # Lower bound for error bars
    error_upper = mean_rating + se,               # Upper bound for error bars
    .groups = "drop"  # Drop grouping after summarize
  )

# View the error bars
print(error_data)

# A tibble: 112 × 5
   texture mean_rating    se error_lower error_upper
   <chr>         <dbl> <dbl>       <dbl>       <dbl>
 1 D1             5.4  0.476        4.92        5.88
 2 D10            3.29 0.522        2.76        3.81
 3 D100           4.57 0.869        3.70        5.44
 4 D101           5    0.724        4.28        5.72
 5 D102*          5.71 0.474        5.24        6.19
 6 D103           3.71 0.808        2.91        4.52
 7 D104           5.17 0.543        4.62        5.71
 8 D105           3.71 0.606        3.11        4.32
 9 D106           5.67 0.422        5.25        6.09
10 D107           2.71 0.606        2.11        3.32
# ℹ 102 more rows

# Arrange data by mean rating in descending order
error_data <- error_data %>% 
  arrange(desc(mean_rating))

error_data

# A tibble: 112 × 5
   texture mean_rating    se error_lower error_upper
   <chr>         <dbl> <dbl>       <dbl>       <dbl>
 1 D28            8.57 5.59         2.98       14.2 
 2 D53            6.29 0.565        5.72        6.85
 3 D77            6.21 0.343        5.87        6.56
 4 D14            6.07 0.711        5.36        6.78
 5 D34            6    1            5           7   
 6 D52            6    0.476        5.52        6.48
 7 D55            6    0.378        5.62        6.38
 8 D102*          5.71 0.474        5.24        6.19
 9 D106           5.67 0.422        5.25        6.09
10 D20            5.67 0.955        4.71        6.62
# ℹ 102 more rows
…
